Apply gene expressions to reaction table — gene_associate • fbar
…
gene_table = data_frame(name = iJO1366$geneAssociation %>%
stringr::str_split('and|or|\\s|\\(|\\)') %>%
  purrr::flatten_chr() %>%
  unique,
presence = 1) %>%
  filter(name != '', !is.na(name))

gene_associate(reaction_table = iJO1366 %>%
                 mutate(geneAssociation = geneAssociation %>%
                          stringr::str_replace_all('and', '&') %>%
                          stringr::str_replace_all('or', '|')
                 ),
               gene_table = gene_table
)
#> # A tibble: 2,583 x 9
#>    abbreviation lowbnd uppbnd obj_coef equation officialName geneAssociation
#>    <chr>         <dbl>  <dbl>    <dbl> <chr>    <chr>        <chr>          
#>  1 12DGR120tipp      0   1000        0 12dgr12… 1,2 diacylg… ""             
#>  2 12DGR140tipp      0   1000        0 12dgr14… 1,2 diacylg… ""             
#>  3 12DGR141tipp      0   1000        0 12dgr14… 1,2 diacylg… ""             
#>  4 12DGR160tipp      0   1000        0 12dgr16… 1,2 diacylg… ""             
#>  5 12DGR161tipp      0   1000        0 12dgr16… 1,2 diacylg… ""             
#>  6 12DGR180tipp      0   1000        0 12dgr18… 1,2 diacylg… ""             
#>  7 12DGR181tipp      0   1000        0 12dgr18… 1,2 diacylg… ""             
#>  8 12PPDRtex     -1000   1000        0 12ppd__… (R)-Propane… b0241 | b0929 …
#>  9 12PPDRtpp     -1000   1000        0 12ppd__… (R)-Propane… ""             
#> 10 12PPDStex     -1000   1000        0 12ppd__… (S)-Propane… b0241 | b0929 …
#> # ... with 2,573 more rows, and 2 more variables: subsystem <chr>,
#> #   present <dbl>
…
